﻿Time (min),[Nitrone],[Acetylene],[Lactam]
0,0.066824418,0.069363722,
15,0.060203408,0.062130403,0
30,0.055275193,0.059490876,0.004143568
45,0.048124047,0.051902236,0.008612883
60,0.043013811,0.046902363,0.012435187
75,0.039851198,0.043932895,0.016463697
90,0.035216491,0.03814624,0.021225886
105,0.030320129,0.032638766,0.025466581
120,0.025369161,0.02659831,0.029009459
135,0.021676412,0.020304053,0.031945669
150,0.017353416,0.015710261,0.035237512
165,0.014441082,0.013324535,0.037214411
180,0.011642511,0.010152027,0.040271655
195,0.009362699,0.00748712,0.041770393
210,0.008554982,0.006040456,0.041598554
225,0.007508362,0.002614147,0.044216488
240,0.007339992,0.002106546,0.043603843
255,0.006846261,0,0.045190742
